<svg xmlns="http://www.w3.org/2000/svg" viewBox="0 0 50 50">
	<circle r="22.5" cx="25" cy="25" stroke-width="5px" fill="none"/>
	<path d="M20,15 v20 M30,15 v20" stroke-width="5px" stroke-linecap="round" stroke-linejoin="round" fill="none"/>
</svg>
